Cracking open ggplot internals with {ggtrace}
…
penguins_sm <- palmerpenguins::penguins %>% 
  select(species, bill_length_mm) %>% 
  filter(!is.na(bill_length_mm))

penguins_sm

# A tibble: 342 × 2
  species bill_length_mm
  <fct>            <dbl>
1 Adelie            39.1
2 Adelie            39.5
3 Adelie            40.3
4 Adelie            36.7
5 Adelie            39.3
# … with 337 more rows
…
